…
## Data scraping gambling revenue and growth

``` r
url = "https://rg.org/statistics/us"
gambling_html = read_html(url)
```

``` r
gambling_html |>
  html_table()
```

    ## [[1]]
    ## # A tibble: 40 × 5
    ##    State       Handle          Revenue        Hold   Taxes       
    ##    <chr>       <chr>           <chr>          <chr>  <chr>       
    ##  1 Arizona     $7,959,647,194  $427,397,087   5.53%  $42,739,709 
    ##  2 Arkansas    -               $107,275,202   -      $13,945,776 
    ##  3 Colorado    $6,187,564,044  $475,176,731   7.87%  $31,934,112 
    ##  4 Connecticut $2,188,745,557  $187,349,516   8.67%  $25,760,559 
    ##  5 Delaware    $216,240,459    $14,585,100    6.99%  $8,474,813  
    ##  6 Florida     -               -              -      -           
    ##  7 Illinois    $14,016,684,933 $1,866,642,282 13.52% $280,390,692
    ##  8 Indiana     $5,212,332,663  $484,278,308   9.48%  $46,245,605 
    ##  9 Iowa        $2,770,339,580  $218,482,781   8.07%  $14,747,588 
    ## 10 Kansas      $2,503,492,581  $145,263,244   5.96%  $13,873,150 
    ## # ℹ 30 more rows
    ## 
    ## [[2]]
…
    ##  1 January 2025   $15,721,477,197 $1,650,645,417 11.21% $354,670,341
    ##  2 February 2025  $12,382,871,791 $1,239,102,150 9.69%  $262,962,206
    ##  3 March 2025     $15,481,330,121 $996,986,477   6.75%  $220,983,072
    ##  4 April 2025     $12,792,017,473 $1,164,871,656 9.35%  $260,844,090
    ##  5 May 2025       $12,787,489,120 $1,430,346,654 11.14% $325,897,450
    ##  6 June 2025      $10,010,350,813 $1,559,587,432 12.69% $285,024,313
    ##  7 July 2025      $8,811,387,460  $963,982,575   10.81% $208,715,680
    ##  8 August 2025    $10,765,611,897 $1,164,308,572 11.98% $254,251,721
    ##  9 September 2025 $15,438,117,768 $1,228,482,775 8.65%  $264,083,960
    ## 10 October 2025   $13,859,996,349 $1,185,962,986 11.70% $284,880,585
    ## 11 November 2025  -               -              -      -           
    ## 12 Total          -               -              -      -           
    ## 
    ## [[3]]
    ## # A tibble: 38 × 1
    ##    X1                                
    ##    <chr>                             
    ##  1 Arizona Sports Betting Revenue    
    ##  2 Arkansas Sports Betting Revenue   
    ##  3 Colorado Sports Betting Revenue   
    ##  4 Connecticut Sports Betting Revenue
    ##  5 Delaware Sports Betting Revenue   
    ##  6 Florida Sports Betting Revenue    
    ##  7 Illinois Sports Betting Revenue   
    ##  8 Indiana Sports Betting Revenue    
    ##  9 Iowa Sports Betting Revenue       
    ## 10 Kansas Sports Betting Revenue     
    ## # ℹ 28 more rows
    ## 
    ## [[4]]
…
